{
  "containers": [
    {
      "x": 300,
      "y": 600
    },
    {
      "x": 200,
      "y": 500
    },
    {
      "x": 200,
      "y": 300
    },
    {
      "x": 400,
      "y": 500
    }
  ],
  "boxes": [
    {
      "x": 104,
      "y": 178,
      "w": 19
    },
    {
      "x": 19,
      "y": 140,
      "w": 18
    },
    {
      "x": 117,
      "y": 108,
      "w": 16
    },
    {
      "x": 28,
      "y": 29,
      "w": 16
    },
    {
      "x": 68,
      "y": 198,
      "w": 6
    },
    {
      "x": 121,
      "y": 141,
      "w": 1
    },
    {
      "x": 133,
      "y": 60,
      "w": 17
    },
    {
      "x": 83,
      "y": 100,
      "w": 5
    },
    {
      "x": 142,
      "y": 48,
      "w": 16
    },
    {
      "x": 166,
      "y": 136,
      "w": 19
    },
    {
      "x": 44,
      "y": 54,
      "w": 14
    },
    {
      "x": 68,
      "y": 23,
      "w": 12
    },
    {
      "x": 109,
      "y": 98,
      "w": 4
    },
    {
      "x": 68,
      "y": 19,
      "w": 16
    },
    {
      "x": 182,
      "y": 101,
      "w": 20
    },
    {
      "x": 117,
      "y": 107,
      "w": 4
    },
    {
      "x": 19,
      "y": 116,
      "w": 18
    },
    {
      "x": 106,
      "y": 172,
      "w": 5
    },
    {
      "x": 128,
      "y": 198,
      "w": 20
    },
    {
      "x": 121,
      "y": 155,
      "w": 3
    },
    {
      "x": 11,
      "y": 10,
      "w": 5
    },
    {
      "x": 197,
      "y": 67,
      "w": 2
    },
    {
      "x": 30,
      "y": 188,
      "w": 20
    },
    {
      "x": 178,
      "y": 28,
      "w": 10
    },
    {
      "x": 44,
      "y": 177,
      "w": 4
    },
    {
      "x": 37,
      "y": 65,
      "w": 10
    },
    {
      "x": 38,
      "y": 145,
      "w": 7
    },
    {
      "x": 154,
      "y": 41,
      "w": 3
    },
    {
      "x": 52,
      "y": 148,
      "w": 16
    },
    {
      "x": 24,
      "y": 188,
      "w": 7
    },
    {
      "x": 178,
      "y": 152,
      "w": 9
    },
    {
      "x": 154,
      "y": 162,
      "w": 20
    },
    {
      "x": 28,
      "y": 71,
      "w": 2
    },
    {
      "x": 198,
      "y": 43,
      "w": 11
    },
    {
      "x": 39,
      "y": 131,
      "w": 10
    },
    {
      "x": 136,
      "y": 185,
      "w": 18
    },
    {
      "x": 114,
      "y": 200,
      "w": 4
    },
    {
      "x": 126,
      "y": 18,
      "w": 3
    },
    {
      "x": 54,
      "y": 16,
      "w": 13
    },
    {
      "x": 135,
      "y": 142,
      "w": 8
    },
    {
      "x": 192,
      "y": 121,
      "w": 7
    },
    {
      "x": 63,
      "y": 126,
      "w": 4
    },
    {
      "x": 69,
      "y": 196,
      "w": 8
    },
    {
      "x": 189,
      "y": 56,
      "w": 3
    },
    {
      "x": 85,
      "y": 98,
      "w": 2
    },
    {
      "x": 176,
      "y": 190,
      "w": 13
    },
    {
      "x": 125,
      "y": 101,
      "w": 10
    },
    {
      "x": 94,
      "y": 74,
      "w": 7
    },
    {
      "x": 27,
      "y": 65,
      "w": 17
    },
    {
      "x": 167,
      "y": 88,
      "w": 2
    },
    {
      "x": 85,
      "y": 105,
      "w": 9
    },
    {
      "x": 18,
      "y": 199,
      "w": 2
    },
    {
      "x": 143,
      "y": 128,
      "w": 9
    },
    {
      "x": 158,
      "y": 53,
      "w": 15
    },
    {
      "x": 184,
      "y": 110,
      "w": 2
    },
    {
      "x": 35,
      "y": 194,
      "w": 6
    },
    {
      "x": 68,
      "y": 184,
      "w": 16
    },
    {
      "x": 170,
      "y": 155,
      "w": 1
    },
    {
      "x": 126,
      "y": 194,
      "w": 4
    },
    {
      "x": 99,
      "y": 160,
      "w": 14
    },
    {
      "x": 140,
      "y": 25,
      "w": 15
    },
    {
      "x": 133,
      "y": 177,
      "w": 11
    },
    {
      "x": 33,
      "y": 198,
      "w": 12
    },
    {
      "x": 193,
      "y": 148,
      "w": 9
    },
    {
      "x": 90,
      "y": 80,
      "w": 12
    },
    {
      "x": 81,
      "y": 43,
      "w": 11
    },
    {
      "x": 23,
      "y": 66,
      "w": 16
    },
    {
      "x": 40,
      "y": 190,
      "w": 6
    },
    {
      "x": 145,
      "y": 58,
      "w": 18
    },
    {
      "x": 197,
      "y": 62,
      "w": 8
    },
    {
      "x": 139,
      "y": 69,
      "w": 15
    },
    {
      "x": 159,
      "y": 190,
      "w": 2
    },
    {
      "x": 93,
      "y": 12,
      "w": 5
    },
    {
      "x": 163,
      "y": 42,
      "w": 8
    },
    {
      "x": 125,
      "y": 191,
      "w": 12
    },
    {
      "x": 55,
      "y": 142,
      "w": 9
    },
    {
      "x": 67,
      "y": 133,
      "w": 1
    },
    {
      "x": 24,
      "y": 71,
      "w": 12
    },
    {
      "x": 181,
      "y": 143,
      "w": 9
    },
    {
      "x": 62,
      "y": 80,
      "w": 16
    },
    {
      "x": 26,
      "y": 15,
      "w": 5
    },
    {
      "x": 96,
      "y": 76,
      "w": 8
    },
    {
      "x": 72,
      "y": 80,
      "w": 19
    },
    {
      "x": 56,
      "y": 115,
      "w": 1
    },
    {
      "x": 139,
      "y": 101,
      "w": 2
    },
    {
      "x": 128,
      "y": 37,
      "w": 5
    },
    {
      "x": 79,
      "y": 88,
      "w": 11
    },
    {
      "x": 80,
      "y": 29,
      "w": 7
    },
    {
      "x": 77,
      "y": 68,
      "w": 19
    },
    {
      "x": 111,
      "y": 29,
      "w": 12
    },
    {
      "x": 65,
      "y": 118,
      "w": 1
    },
    {
      "x": 118,
      "y": 54,
      "w": 10
    },
    {
      "x": 25,
      "y": 163,
      "w": 13
    },
    {
      "x": 200,
      "y": 98,
      "w": 15
    },
    {
      "x": 153,
      "y": 43,
      "w": 16
    },
    {
      "x": 120,
      "y": 66,
      "w": 6
    },
    {
      "x": 156,
      "y": 31,
      "w": 19
    },
    {
      "x": 97,
      "y": 12,
      "w": 9
    },
    {
      "x": 105,
      "y": 169,
      "w": 17
    },
    {
      "x": 139,
      "y": 75,
      "w": 7
    }
  ]
}